simulation/modelsim/msim_transcript
# Reading C:/altera/13.0sp1/modelsim_ase/tcl/vsim/pref.tcl 
# do pratica4_run_msim_rtl_verilog.do 
# if {[file exists rtl_work]} {
# 	vdel -lib rtl_work -all
# }
# vlib rtl_work
# vmap work rtl_work
# Copying C:\altera\13.0sp1\modelsim_ase\win32aloem/../modelsim.ini to modelsim.ini
# Modifying modelsim.ini
# ** Warning: Copied C:\altera\13.0sp1\modelsim_ase\win32aloem/../modelsim.ini to modelsim.ini.
#          Updated modelsim.ini.
# 
# vlog -vlog01compat -work work +incdir+C:/ProgramasCEFET/quartus/AOCII/pratica4 {C:/ProgramasCEFET/quartus/AOCII/pratica4/memory.v}
# Model Technology ModelSim ALTERA vlog 10.1d Compiler 2012.11 Nov  2 2012
# -- Compiling module memory
# 
# Top level modules:
# 	memory
# vlog -vlog01compat -work work +incdir+C:/ProgramasCEFET/quartus/AOCII/pratica4 {C:/ProgramasCEFET/quartus/AOCII/pratica4/snooping.v}
# Model Technology ModelSim ALTERA vlog 10.1d Compiler 2012.11 Nov  2 2012
# -- Compiling module snooping
# 
# Top level modules:
# 	snooping
# 
# vlog -vlog01compat -work work +incdir+C:/ProgramasCEFET/quartus/AOCII/pratica4 {C:/ProgramasCEFET/quartus/AOCII/pratica4/testbench.v}
# Model Technology ModelSim ALTERA vlog 10.1d Compiler 2012.11 Nov  2 2012
# -- Compiling module testbench
# 
# Top level modules:
# 	testbench
# 
# vsim -t 1ps -L altera_ver -L lpm_ver -L sgate_ver -L altera_mf_ver -L altera_lnsim_ver -L cycloneii_ver -L rtl_work -L work -voptargs="+acc"  testbench
# vsim -L altera_ver -L lpm_ver -L sgate_ver -L altera_mf_ver -L altera_lnsim_ver -L cycloneii_ver -L rtl_work -L work -voptargs=\"+acc\" -t 1ps testbench 
# Loading work.testbench
# Loading work.snooping
# Loading work.memory
# 
# add wave *
# view structure
# .main_pane.structure.interior.cs.body.struct
# view signals
# .main_pane.objects.interior.cs.body.tree
# run -all
# --------------------------------------------------------------------------------------------------------------------
# T_step: 0
# Mensagem: xx
# P0:
# status: 01, tag: 000, data:     8
# status: 10, tag: 001, data:    30
# status: 00, tag: 010, data:     0
# status: 00, tag: 011, data:     0
# 
# P1:
# status: 00, tag: 000, data:     0
# status: 00, tag: 001, data:     0
# status: 00, tag: 010, data:     0
# status: 00, tag: 011, data:     0
# 
# P2:
# status: 01, tag: 000, data:     8
# status: 00, tag: 001, data:     0
# status: 01, tag: 010, data:    20
# status: 00, tag: 011, data:     0
# 
# MEMORY: m_tag: 010, enable: x, w_enable: x, data_in:     x, data_out:     x
# 
# data[0]:     8 | data[1]:    10 | data[2]:    20 | data[3]:    30
# data[4]:     0 | data[5]:     0 | data[6]:     0 | data[7]:     7
# T_step: 1
# Mensagem: xx
# P0:
# status: 01, tag: 000, data:     8
# status: 10, tag: 001, data:    30
# status: 00, tag: 010, data:    20
# status: 00, tag: 011, data:     0
# 
# P1:
# status: 00, tag: 000, data:     0
# status: 00, tag: 001, data:     0
# status: 00, tag: 010, data:     0
# status: 00, tag: 011, data:     0
# 
# P2:
# status: 01, tag: 000, data:     8
# status: 00, tag: 001, data:     0
# status: 01, tag: 010, data:    20
# status: 00, tag: 011, data:     0
# 
# MEMORY: m_tag: 010, enable: 0, w_enable: 0, data_in:     x, data_out:     x
# 
# data[0]:     8 | data[1]:    10 | data[2]:    20 | data[3]:    30
# data[4]:     0 | data[5]:     0 | data[6]:     0 | data[7]:     7
# T_step: 2
# Mensagem: xx
# P0:
# status: 01, tag: 000, data:     8
# status: 10, tag: 001, data:    30
# status: 00, tag: 010, data:    20
# status: 00, tag: 011, data:     0
# 
# P1:
# status: 00, tag: 000, data:     0
# status: 00, tag: 001, data:     0
# status: 00, tag: 010, data:     0
# status: 00, tag: 011, data:     0
# 
# P2:
# status: 01, tag: 000, data:     8
# status: 00, tag: 001, data:     0
# status: 01, tag: 010, data:    20
# status: 00, tag: 011, data:     0
# 
# MEMORY: m_tag: 010, enable: 0, w_enable: 0, data_in:     x, data_out:     x
# 
# data[0]:     8 | data[1]:    10 | data[2]:    20 | data[3]:    30
# data[4]:     0 | data[5]:     0 | data[6]:     0 | data[7]:     7
# T_step: 3
# Mensagem: 01
# P0:
# status: 01, tag: 000, data:     8
# status: 10, tag: 001, data:    30
# status: 01, tag: 010, data:    20
# status: 00, tag: 011, data:     0
# 
# P1:
# status: 00, tag: 000, data:     0
# status: 00, tag: 001, data:     0
# status: 00, tag: 010, data:     0
# status: 00, tag: 011, data:     0
# 
# P2:
# status: 01, tag: 000, data:     8
# status: 00, tag: 001, data:     0
# status: 01, tag: 010, data:    20
# status: 00, tag: 011, data:     0
# 
# MEMORY: m_tag: 010, enable: 0, w_enable: 0, data_in:     x, data_out:     x
# 
# data[0]:     8 | data[1]:    10 | data[2]:    20 | data[3]:    30
# data[4]:     0 | data[5]:     0 | data[6]:     0 | data[7]:     7
# T_step: 4
# Mensagem: 01
# P0:
# status: 01, tag: 000, data:     8
# status: 10, tag: 001, data:    30
# status: 01, tag: 010, data:    20
# status: 00, tag: 011, data:     0
# 
# P1:
# status: 00, tag: 000, data:     0
# status: 00, tag: 001, data:     0
# status: 00, tag: 010, data:     0
# status: 00, tag: 011, data:     0
# 
# P2:
# status: 01, tag: 000, data:     8
# status: 00, tag: 001, data:     0
# status: 01, tag: 010, data:    20
# status: 00, tag: 011, data:     0
# 
# MEMORY: m_tag: 010, enable: 0, w_enable: 0, data_in:     x, data_out:     x
# 
# data[0]:     8 | data[1]:    10 | data[2]:    20 | data[3]:    30
# data[4]:     0 | data[5]:     0 | data[6]:     0 | data[7]:     7
# --------------------------------------------------------------------------------------------------------------------
# T_step: 0
# Mensagem: 01
# P0:
# status: 01, tag: 000, data:     8
# status: 10, tag: 001, data:    30
# status: 01, tag: 010, data:    20
# status: 00, tag: 011, data:     0
# 
# P1:
# status: 00, tag: 000, data:     0
# status: 00, tag: 001, data:     0
# status: 00, tag: 010, data:     0
# status: 00, tag: 011, data:     0
# 
# P2:
# status: 01, tag: 000, data:     8
# status: 00, tag: 001, data:     0
# status: 01, tag: 010, data:    20
# status: 00, tag: 011, data:     0
# 
# MEMORY: m_tag: 010, enable: 0, w_enable: 0, data_in:     x, data_out:     x
# 
# data[0]:     8 | data[1]:    10 | data[2]:    20 | data[3]:    30
# data[4]:     0 | data[5]:     0 | data[6]:     0 | data[7]:     7
# T_step: 1
# Mensagem: 01
# P0:
# status: 01, tag: 000, data:     8
# status: 10, tag: 001, data:    30
# status: 01, tag: 010, data:    20
# status: 00, tag: 011, data:     0
# 
# P1:
# status: 00, tag: 000, data:     0
# status: 00, tag: 001, data:     0
# status: 00, tag: 010, data:     0
# status: 00, tag: 011, data:     0
# 
# P2:
# status: 01, tag: 000, data:     8
# status: 00, tag: 001, data:     0
# status: 01, tag: 010, data:    20
# status: 00, tag: 011, data:     0
# 
# MEMORY: m_tag: 010, enable: 0, w_enable: 0, data_in:     x, data_out:     x
# 
# data[0]:     8 | data[1]:    10 | data[2]:    20 | data[3]:    30
# data[4]:     0 | data[5]:     0 | data[6]:     0 | data[7]:     7
# T_step: 2
# Mensagem: 01
# P0:
# status: 01, tag: 000, data:     8
# status: 10, tag: 001, data:    30
# status: 01, tag: 010, data:     x
# status: 00, tag: 011, data:     0
# 
# P1:
# status: 00, tag: 000, data:     0
# status: 00, tag: 001, data:     0
# status: 00, tag: 010, data:     0
# status: 00, tag: 011, data:     0
# 
# P2:
# status: 01, tag: 000, data:     8
# status: 00, tag: 001, data:     0
# status: 01, tag: 010, data:    20
# status: 00, tag: 011, data:     0
# 
# MEMORY: m_tag: 010, enable: 0, w_enable: 0, data_in:     x, data_out:     x
# 
# data[0]:     8 | data[1]:    10 | data[2]:    20 | data[3]:    30
# data[4]:     0 | data[5]:     0 | data[6]:     0 | data[7]:     7
# T_step: 3
# Mensagem: 10
# P0:
# status: 01, tag: 000, data:     8
# status: 10, tag: 001, data:    30
# status: 10, tag: 010, data:    80
# status: 00, tag: 011, data:     0
# 
# P1:
# status: 00, tag: 000, data:     0
# status: 00, tag: 001, data:     0
# status: 00, tag: 010, data:     0
# status: 00, tag: 011, data:     0
# 
# P2:
# status: 01, tag: 000, data:     8
# status: 00, tag: 001, data:     0
# status: 01, tag: 010, data:    20
# status: 00, tag: 011, data:     0
# 
# MEMORY: m_tag: 010, enable: 0, w_enable: 0, data_in:     x, data_out:     x
# 
# data[0]:     8 | data[1]:    10 | data[2]:    20 | data[3]:    30
# data[4]:     0 | data[5]:     0 | data[6]:     0 | data[7]:     7
# T_step: 4
# Mensagem: 10
# P0:
# status: 01, tag: 000, data:     8
# status: 10, tag: 001, data:    30
# status: 10, tag: 010, data:    80
# status: 00, tag: 011, data:     0
# 
# P1:
# status: 00, tag: 000, data:     0
# status: 00, tag: 001, data:     0
# status: 00, tag: 010, data:     0
# status: 00, tag: 011, data:     0
# 
# P2:
# status: 01, tag: 000, data:     8
# status: 00, tag: 001, data:     0
# status: 00, tag: 010, data:    20
# status: 00, tag: 011, data:     0
# 
# MEMORY: m_tag: 010, enable: 0, w_enable: 0, data_in:     x, data_out:     x
# 
# data[0]:     8 | data[1]:    10 | data[2]:    20 | data[3]:    30
# data[4]:     0 | data[5]:     0 | data[6]:     0 | data[7]:     7
# --------------------------------------------------------------------------------------------------------------------
# T_step: 0
# Mensagem: 10
# P0:
# status: 01, tag: 000, data:     8
# status: 10, tag: 001, data:    30
# status: 10, tag: 010, data:    80
# status: 00, tag: 011, data:     0
# 
# P1:
# status: 00, tag: 000, data:     0
# status: 00, tag: 001, data:     0
# status: 00, tag: 010, data:     0
# status: 00, tag: 011, data:     0
# 
# P2:
# status: 01, tag: 000, data:     8
# status: 00, tag: 001, data:     0
# status: 00, tag: 010, data:    20
# status: 00, tag: 011, data:     0
# 
# MEMORY: m_tag: 010, enable: 0, w_enable: 0, data_in:     x, data_out:     x
# 
# data[0]:     8 | data[1]:    10 | data[2]:    20 | data[3]:    30
# data[4]:     0 | data[5]:     0 | data[6]:     0 | data[7]:     7
# T_step: 1
# Mensagem: 10
# P0:
# status: 01, tag: 000, data:     8
# status: 10, tag: 001, data:    30
# status: 10, tag: 010, data:    80
# status: 00, tag: 011, data:     0
# 
# P1:
# status: 00, tag: 000, data:     0
# status: 00, tag: 001, data:     0
# status: 00, tag: 010, data:     0
# status: 00, tag: 011, data:     0
# 
# P2:
# status: 01, tag: 000, data:     8
# status: 00, tag: 001, data:     0
# status: 00, tag: 010, data:    80
# status: 00, tag: 011, data:     0
# 
# MEMORY: m_tag: 010, enable: 0, w_enable: 0, data_in:     x, data_out:     x
# 
# data[0]:     8 | data[1]:    10 | data[2]:    20 | data[3]:    30
# data[4]:     0 | data[5]:     0 | data[6]:     0 | data[7]:     7
# T_step: 2
# Mensagem: 10
# P0:
# status: 01, tag: 000, data:     8
# status: 10, tag: 001, data:    30
# status: 10, tag: 010, data:    80
# status: 00, tag: 011, data:     0
# 
# P1:
# status: 00, tag: 000, data:     0
# status: 00, tag: 001, data:     0
# status: 00, tag: 010, data:     0
# status: 00, tag: 011, data:     0
# 
# P2:
# status: 01, tag: 000, data:     8
# status: 00, tag: 001, data:     0
# status: 00, tag: 010, data:    80
# status: 00, tag: 011, data:     0
# 
# MEMORY: m_tag: 010, enable: 0, w_enable: 0, data_in:     x, data_out:     x
# 
# data[0]:     8 | data[1]:    10 | data[2]:    20 | data[3]:    30
# data[4]:     0 | data[5]:     0 | data[6]:     0 | data[7]:     7
# T_step: 3
# Mensagem: 00
# P0:
# status: 01, tag: 000, data:     8
# status: 10, tag: 001, data:    30
# status: 10, tag: 010, data:    80
# status: 00, tag: 011, data:     0
# 
# P1:
# status: 00, tag: 000, data:     0
# status: 00, tag: 001, data:     0
# status: 00, tag: 010, data:     0
# status: 00, tag: 011, data:     0
# 
# P2:
# status: 01, tag: 000, data:     8
# status: 00, tag: 001, data:     0
# status: 10, tag: 010, data:    80
# status: 00, tag: 011, data:     0
# 
# MEMORY: m_tag: 010, enable: 0, w_enable: 0, data_in:     x, data_out:     x
# 
# data[0]:     8 | data[1]:    10 | data[2]:    20 | data[3]:    30
# data[4]:     0 | data[5]:     0 | data[6]:     0 | data[7]:     7
# T_step: 4
# Mensagem: 00
# P0:
# status: 01, tag: 000, data:     8
# status: 10, tag: 001, data:    30
# status: 00, tag: 010, data:    80
# status: 00, tag: 011, data:     0
# 
# P1:
# status: 00, tag: 000, data:     0
# status: 00, tag: 001, data:     0
# status: 00, tag: 010, data:     0
# status: 00, tag: 011, data:     0
# 
# P2:
# status: 01, tag: 000, data:     8
# status: 00, tag: 001, data:     0
# status: 10, tag: 010, data:    80
# status: 00, tag: 011, data:     0
# 
# MEMORY: m_tag: 010, enable: 1, w_enable: 1, data_in:    80, data_out:     x
# 
# data[0]:     8 | data[1]:    10 | data[2]:    80 | data[3]:    30
# data[4]:     0 | data[5]:     0 | data[6]:     0 | data[7]:     7
# --------------------------------------------------------------------------------------------------------------------
# T_step: 0
# Mensagem: 00
# P0:
# status: 01, tag: 000, data:     8
# status: 10, tag: 001, data:    30
# status: 00, tag: 010, data:    80
# status: 00, tag: 011, data:     0
# 
# P1:
# status: 00, tag: 000, data:     0
# status: 00, tag: 001, data:     0
# status: 00, tag: 010, data:     0
# status: 00, tag: 011, data:     0
# 
# P2:
# status: 01, tag: 000, data:     8
# status: 00, tag: 001, data:     0
# status: 10, tag: 010, data:    80
# status: 00, tag: 011, data:     0
# 
# MEMORY: m_tag: 111, enable: 0, w_enable: 0, data_in:    80, data_out:     x
# 
# data[0]:     8 | data[1]:    10 | data[2]:    80 | data[3]:    30
# data[4]:     0 | data[5]:     0 | data[6]:     0 | data[7]:     7
# T_step: 1
# Mensagem: 00
# P0:
# status: 01, tag: 000, data:     8
# status: 10, tag: 001, data:    30
# status: 00, tag: 010, data:    80
# status: 00, tag: 011, data:     0
# 
# P1:
# status: 00, tag: 000, data:     0
# status: 00, tag: 001, data:     0
# status: 00, tag: 010, data:     0
# status: 00, tag: 011, data:     0
# 
# P2:
# status: 01, tag: 000, data:     8
# status: 00, tag: 111, data:     0
# status: 10, tag: 010, data:    80
# status: 00, tag: 011, data:     0
# 
# MEMORY: m_tag: 111, enable: 1, w_enable: 0, data_in:    80, data_out:     7
# 
# data[0]:     8 | data[1]:    10 | data[2]:    80 | data[3]:    30
# data[4]:     0 | data[5]:     0 | data[6]:     0 | data[7]:     7
# T_step: 2
# Mensagem: 00
# P0:
# status: 01, tag: 000, data:     8
# status: 10, tag: 001, data:    30
# status: 00, tag: 010, data:    80
# status: 00, tag: 011, data:     0
# 
# P1:
# status: 00, tag: 000, data:     0
# status: 00, tag: 001, data:     0
# status: 00, tag: 010, data:     0
# status: 00, tag: 011, data:     0
# 
# P2:
# status: 01, tag: 000, data:     8
# status: 00, tag: 111, data:     7
# status: 10, tag: 010, data:    80
# status: 00, tag: 011, data:     0
# 
# MEMORY: m_tag: 111, enable: 0, w_enable: 0, data_in:    80, data_out:     7
# 
# data[0]:     8 | data[1]:    10 | data[2]:    80 | data[3]:    30
# data[4]:     0 | data[5]:     0 | data[6]:     0 | data[7]:     7
# T_step: 3
# Mensagem: 01
# P0:
# status: 01, tag: 000, data:     8
# status: 10, tag: 001, data:    30
# status: 00, tag: 010, data:    80
# status: 00, tag: 011, data:     0
# 
# P1:
# status: 00, tag: 000, data:     0
# status: 00, tag: 001, data:     0
# status: 00, tag: 010, data:     0
# status: 00, tag: 011, data:     0
# 
# P2:
# status: 01, tag: 000, data:     8
# status: 01, tag: 111, data:     7
# status: 10, tag: 010, data:    80
# status: 00, tag: 011, data:     0
# 
# MEMORY: m_tag: 111, enable: 0, w_enable: 0, data_in:    80, data_out:     7
# 
# data[0]:     8 | data[1]:    10 | data[2]:    80 | data[3]:    30
# data[4]:     0 | data[5]:     0 | data[6]:     0 | data[7]:     7
# T_step: 4
# Mensagem: 01
# P0:
# status: 01, tag: 000, data:     8
# status: 10, tag: 001, data:    30
# status: 00, tag: 010, data:    80
# status: 00, tag: 011, data:     0
# 
# P1:
# status: 00, tag: 000, data:     0
# status: 00, tag: 001, data:     0
# status: 00, tag: 010, data:     0
# status: 00, tag: 011, data:     0
# 
# P2:
# status: 01, tag: 000, data:     8
# status: 01, tag: 111, data:     7
# status: 10, tag: 010, data:    80
# status: 00, tag: 011, data:     0
# 
# MEMORY: m_tag: 111, enable: 0, w_enable: 0, data_in:    80, data_out:     7
# 
# data[0]:     8 | data[1]:    10 | data[2]:    80 | data[3]:    30
# data[4]:     0 | data[5]:     0 | data[6]:     0 | data[7]:     7
# --------------------------------------------------------------------------------------------------------------------
# T_step: 0
# Mensagem: 01
# P0:
# status: 01, tag: 000, data:     8
# status: 10, tag: 001, data:    30
# status: 00, tag: 010, data:    80
# status: 00, tag: 011, data:     0
# 
# P1:
# status: 00, tag: 000, data:     0
# status: 00, tag: 001, data:     0
# status: 00, tag: 010, data:     0
# status: 00, tag: 011, data:     0
# 
# P2:
# status: 01, tag: 000, data:     8
# status: 01, tag: 111, data:     7
# status: 10, tag: 010, data:    80
# status: 00, tag: 011, data:     0
# 
# MEMORY: m_tag: 111, enable: 0, w_enable: 0, data_in:    80, data_out:     7
# 
# data[0]:     8 | data[1]:    10 | data[2]:    80 | data[3]:    30
# data[4]:     0 | data[5]:     0 | data[6]:     0 | data[7]:     7
# T_step: 1
# Mensagem: 01
# P0:
# status: 01, tag: 000, data:     8
# status: 10, tag: 001, data:    30
# status: 00, tag: 010, data:    80
# status: 00, tag: 011, data:     0
# 
# P1:
# status: 00, tag: 000, data:     0
# status: 00, tag: 001, data:     0
# status: 00, tag: 010, data:     0
# status: 00, tag: 011, data:     0
# 
# P2:
# status: 01, tag: 000, data:     8
# status: 01, tag: 111, data:     7
# status: 10, tag: 010, data:    80
# status: 00, tag: 011, data:     0
# 
# MEMORY: m_tag: 111, enable: 0, w_enable: 0, data_in:    80, data_out:     7
# 
# data[0]:     8 | data[1]:    10 | data[2]:    80 | data[3]:    30
# data[4]:     0 | data[5]:     0 | data[6]:     0 | data[7]:     7
# T_step: 2
# Mensagem: 01
# P0:
# status: 01, tag: 000, data:     8
# status: 10, tag: 001, data:    30
# status: 00, tag: 010, data:    80
# status: 00, tag: 011, data:     0
# 
# P1:
# status: 00, tag: 000, data:     0
# status: 00, tag: 001, data:     0
# status: 00, tag: 010, data:     0
# status: 00, tag: 011, data:     0
# 
# P2:
# status: 01, tag: 000, data:     8
# status: 01, tag: 111, data:     7
# status: 10, tag: 010, data:    80
# status: 00, tag: 011, data:     0
# 
# MEMORY: m_tag: 111, enable: 0, w_enable: 0, data_in:    80, data_out:     7
# 
# data[0]:     8 | data[1]:    10 | data[2]:    80 | data[3]:    30
# data[4]:     0 | data[5]:     0 | data[6]:     0 | data[7]:     7
# T_step: 3
# Mensagem: 10
# P0:
# status: 01, tag: 000, data:     8
# status: 10, tag: 001, data:    30
# status: 00, tag: 010, data:    80
# status: 00, tag: 011, data:     0
# 
# P1:
# status: 00, tag: 000, data:     0
# status: 00, tag: 001, data:     0
# status: 00, tag: 010, data:     0
# status: 00, tag: 011, data:     0
# 
# P2:
# status: 01, tag: 000, data:     8
# status: 10, tag: 111, data:    71
# status: 10, tag: 010, data:    80
# status: 00, tag: 011, data:     0
# 
# MEMORY: m_tag: 111, enable: 0, w_enable: 0, data_in:    80, data_out:     7
# 
# data[0]:     8 | data[1]:    10 | data[2]:    80 | data[3]:    30
# data[4]:     0 | data[5]:     0 | data[6]:     0 | data[7]:     7
# T_step: 4
# Mensagem: 10
# P0:
# status: 01, tag: 000, data:     8
# status: 10, tag: 001, data:    30
# status: 00, tag: 010, data:    80
# status: 00, tag: 011, data:     0
# 
# P1:
# status: 00, tag: 000, data:     0
# status: 00, tag: 001, data:     0
# status: 00, tag: 010, data:     0
# status: 00, tag: 011, data:     0
# 
# P2:
# status: 01, tag: 000, data:     8
# status: 10, tag: 111, data:    71
# status: 10, tag: 010, data:    80
# status: 00, tag: 011, data:     0
# 
# MEMORY: m_tag: 111, enable: 0, w_enable: 0, data_in:    80, data_out:     7
# 
# data[0]:     8 | data[1]:    10 | data[2]:    80 | data[3]:    30
# data[4]:     0 | data[5]:     0 | data[6]:     0 | data[7]:     7
# --------------------------------------------------------------------------------------------------------------------
# T_step: 0
# Mensagem: 10
# P0:
# status: 01, tag: 000, data:     8
# status: 10, tag: 001, data:    30
# status: 00, tag: 010, data:    80
# status: 00, tag: 011, data:     0
# 
# P1:
# status: 00, tag: 000, data:     0
# status: 00, tag: 001, data:     0
# status: 00, tag: 010, data:     0
# status: 00, tag: 011, data:     0
# 
# P2:
# status: 01, tag: 000, data:     8
# status: 10, tag: 111, data:    71
# status: 10, tag: 010, data:    80
# status: 00, tag: 011, data:     0
# 
# MEMORY: m_tag: 111, enable: 0, w_enable: 0, data_in:    80, data_out:     7
# 
# data[0]:     8 | data[1]:    10 | data[2]:    80 | data[3]:    30
# data[4]:     0 | data[5]:     0 | data[6]:     0 | data[7]:     7
# T_step: 1
# Mensagem: 10
# P0:
# status: 01, tag: 000, data:     8
# status: 10, tag: 001, data:    30
# status: 00, tag: 010, data:    80
# status: 00, tag: 011, data:     0
# 
# P1:
# status: 00, tag: 000, data:     0
# status: 00, tag: 111, data:    71
# status: 00, tag: 010, data:     0
# status: 00, tag: 011, data:     0
# 
# P2:
# status: 01, tag: 000, data:     8
# status: 10, tag: 111, data:    71
# status: 10, tag: 010, data:    80
# status: 00, tag: 011, data:     0
# 
# MEMORY: m_tag: 111, enable: 0, w_enable: 0, data_in:    80, data_out:     7
# 
# data[0]:     8 | data[1]:    10 | data[2]:    80 | data[3]:    30
# data[4]:     0 | data[5]:     0 | data[6]:     0 | data[7]:     7
# T_step: 2
# Mensagem: 10
# P0:
# status: 01, tag: 000, data:     8
# status: 10, tag: 001, data:    30
# status: 00, tag: 010, data:    80
# status: 00, tag: 011, data:     0
# 
# P1:
# status: 00, tag: 000, data:     0
# status: 00, tag: 111, data:    71
# status: 00, tag: 010, data:     0
# status: 00, tag: 011, data:     0
# 
# P2:
# status: 01, tag: 000, data:     8
# status: 10, tag: 111, data:    71
# status: 10, tag: 010, data:    80
# status: 00, tag: 011, data:     0
# 
# MEMORY: m_tag: 111, enable: 0, w_enable: 0, data_in:    80, data_out:     7
# 
# data[0]:     8 | data[1]:    10 | data[2]:    80 | data[3]:    30
# data[4]:     0 | data[5]:     0 | data[6]:     0 | data[7]:     7
# T_step: 3
# Mensagem: 00
# P0:
# status: 01, tag: 000, data:     8
# status: 10, tag: 001, data:    30
# status: 00, tag: 010, data:    80
# status: 00, tag: 011, data:     0
# 
# P1:
# status: 00, tag: 000, data:     0
# status: 10, tag: 111, data:    99
# status: 00, tag: 010, data:     0
# status: 00, tag: 011, data:     0
# 
# P2:
# status: 01, tag: 000, data:     8
# status: 10, tag: 111, data:    71
# status: 10, tag: 010, data:    80
# status: 00, tag: 011, data:     0
# 
# MEMORY: m_tag: 111, enable: 0, w_enable: 0, data_in:    80, data_out:     7
# 
# data[0]:     8 | data[1]:    10 | data[2]:    80 | data[3]:    30
# data[4]:     0 | data[5]:     0 | data[6]:     0 | data[7]:     7
# T_step: 4
# Mensagem: 00
# P0:
# status: 01, tag: 000, data:     8
# status: 10, tag: 001, data:    30
# status: 00, tag: 010, data:    80
# status: 00, tag: 011, data:     0
# 
# P1:
# status: 00, tag: 000, data:     0
# status: 10, tag: 111, data:    99
# status: 00, tag: 010, data:     0
# status: 00, tag: 011, data:     0
# 
# P2:
# status: 01, tag: 000, data:     8
# status: 00, tag: 111, data:    71
# status: 10, tag: 010, data:    80
# status: 00, tag: 011, data:     0
# 
# MEMORY: m_tag: 111, enable: 1, w_enable: 1, data_in:    71, data_out:     7
# 
# data[0]:     8 | data[1]:    10 | data[2]:    80 | data[3]:    30
# data[4]:     0 | data[5]:     0 | data[6]:     0 | data[7]:    71
# --------------------------------------------------------------------------------------------------------------------
# T_step: 0
# Mensagem: 00
# P0:
# status: 01, tag: 000, data:     8
# status: 10, tag: 001, data:    30
# status: 00, tag: 010, data:    80
# status: 00, tag: 011, data:     0
# 
# P1:
# status: 00, tag: 000, data:     0
# status: 10, tag: 111, data:    99
# status: 00, tag: 010, data:     0
# status: 00, tag: 011, data:     0
# 
# P2:
# status: 01, tag: 000, data:     8
# status: 00, tag: 111, data:    71
# status: 10, tag: 010, data:    80
# status: 00, tag: 011, data:     0
# 
# MEMORY: m_tag: 111, enable: 0, w_enable: 0, data_in:    71, data_out:     7
# 
# data[0]:     8 | data[1]:    10 | data[2]:    80 | data[3]:    30
# data[4]:     0 | data[5]:     0 | data[6]:     0 | data[7]:    71
